<svg width="13" height="21" viewBox="0 0 13 21" fill="none" xmlns="http://www.w3.org/2000/svg">
<path d="M5 20L9 16L6.5 5L7.493 2.351C7.5497 2.19974 7.56891 2.03699 7.54899 1.87669C7.52907 1.71638 7.47061 1.56329 7.37862 1.43051C7.28662 1.29772 7.16383 1.1892 7.02074 1.11423C6.87766 1.03925 6.71854 1.00006 6.557 1H3.443C3.28146 1.00006 3.12234 1.03925 2.97926 1.11423C2.83617 1.1892 2.71338 1.29772 2.62138 1.43051C2.52939 1.56329 2.47093 1.71638 2.45101 1.87669C2.43109 2.03699 2.4503 2.19974 2.507 2.351L3.5 5L1 16L5 20Z" stroke="#144E8C" stroke-width="2" stroke-linecap="round" stroke-linejoin="round"/>
<path d="M3.5 5H6.5L11.5 10.5" stroke="#144E8C" stroke-width="2" stroke-linecap="round" stroke-linejoin="round"/>
</svg>
