<svg width="40" height="40" viewBox="0 0 40 40" fill="none" xmlns="http://www.w3.org/2000/svg">
<path d="M40 20C40 8.95437 31.0456 0 20 0C8.95437 0 0 8.95422 0 20C0 29.9825 7.31375 38.2567 16.875 39.757V25.7812H11.7969V20H16.875V15.5937C16.875 10.5812 19.8609 7.8125 24.4292 7.8125C26.6175 7.8125 28.9062 8.20312 28.9062 8.20312V13.125H26.3844C23.8997 13.125 23.125 14.6667 23.125 16.2484V20H28.6719L27.7852 25.7812H23.125V39.757C32.6862 38.2567 40 29.9827 40 20Z" fill="#1877F2"/>
</svg>
