<svg width="32" height="32" viewBox="0 0 32 32" fill="none" xmlns="http://www.w3.org/2000/svg">
<path d="M30.769 12.3081H28.3074C28.3048 10.0239 27.3963 7.83397 25.7811 6.21878C24.1659 4.6036 21.976 3.69504 19.6918 3.69244V1.23082C22.6286 1.23408 25.4443 2.40219 27.521 4.47888C29.5977 6.55556 30.7658 9.37122 30.769 12.3081ZM21.3324 22.7478L24.0894 19.9908C24.4585 19.6217 24.9277 19.3689 25.439 19.2639C25.9503 19.1589 26.4812 19.2062 26.9658 19.4L30.3235 20.7441C30.8184 20.9421 31.2426 21.2838 31.5414 21.7252C31.8402 22.1666 31.9999 22.6874 31.9998 23.2204V29.3265C32.0007 29.6894 31.9275 30.0487 31.7847 30.3823C31.6419 30.716 31.4325 31.017 31.1693 31.2669C30.9062 31.5168 30.5948 31.7104 30.2542 31.8357C29.9136 31.9611 29.5511 32.0157 29.1887 31.9961C5.65316 30.5314 0.899773 10.5973 0.0172832 2.9638C-0.0254583 2.59061 0.0112926 2.2126 0.125119 1.85464C0.238945 1.49667 0.427268 1.16686 0.6777 0.886902C0.928131 0.60694 1.235 0.383169 1.57811 0.230308C1.92123 0.0774474 2.29282 -0.00103933 2.66844 1.03923e-05H8.66617C9.1992 -6.72342e-06 9.72001 0.159685 10.1614 0.458486C10.6028 0.757287 10.9446 1.18149 11.1426 1.67637L12.4854 5.03402C12.6792 5.51868 12.7265 6.04955 12.6215 6.56084C12.5164 7.07213 12.2637 7.54137 11.8946 7.91042L9.13757 10.6674C9.13757 10.6674 10.6662 21.4148 21.3324 22.7478Z" fill="#1A73E8"/>
</svg>
